{
  "globalAlerts": [
    "welcome"
  ],
  "restrictedAlerts": {},
  "alerts": {
    "welcome": {
      "category": "Willkommen beim Portal für TEMPUS.",
      "content": "Fokus dieses Showrooms:<br><ul><li>Lichtsignalanlagen</li><li>Signalgeber</li><li>Verkehrsdetektoren</li></ul>"
    }
  }
}
