﻿{
  "Portalconfig": {
    "portalTitle": {
      "title": "TEMPUS",
      "logo": "./resources/img/DigitalerZwilling_Logo_RGB_transparent.png",
      "link": "https://www.muenchen.de/rathaus/Stadtverwaltung/Kommunalreferat/geodatenservice.html",
      "toolTip": "für das Umsetzungsprojekt"
    },
    "treeType": "light",
    "searchBar": {
      "tree": {
        "minChars": 3
      },
      "startZoomLevel": 9,
      "placeholder": "Suche nach Themen im Portal"
    },
    "mapView": {
      "backgroundImage": "./resources/img/backgroundCanvas.jpeg",
      "options": [
        {
          "resolution": 112,
          "scale": 400000,
          "zoomLevel": 0
        },
        {
          "resolution": 56,
          "scale": 200000,
          "zoomLevel": 1
        },
        {
          "resolution": 42,
          "scale": 150000,
          "zoomLevel": 2
        },
        {
          "resolution": 28,
          "scale": 100000,
          "zoomLevel": 3
        },
        {
          "resolution": 21,
          "scale": 75000,
          "zoomLevel": 4
        },
        {
          "resolution": 14,
          "scale": 50000,
          "zoomLevel": 5
        },
        {
          "resolution": 7,
          "scale": 25000,
          "zoomLevel": 6
        },
        {
          "resolution": 4.2,
          "scale": 15000,
          "zoomLevel": 7
        },
        {
          "resolution": 2.8,
          "scale": 10000,
          "zoomLevel": 8
        },
        {
          "resolution": 2.1,
          "scale": 7500,
          "zoomLevel": 9
        },
        {
          "resolution": 1.4,
          "scale": 5000,
          "zoomLevel": 10
        },
        {
          "resolution": 0.7,
          "scale": 2500,
          "zoomLevel": 11
        },
        {
          "resolution": 0.28,
          "scale": 1000,
          "zoomLevel": 12
        },
        {
          "resolution": 0.14,
          "scale": 500,
          "zoomLevel": 13
        },
        {
          "resolution": 0.07,
          "scale": 250,
          "zoomLevel": 14
        }
      ],
      "startCenter": [
        691603,
        5334761
      ],
      "extent": [
        518901,
        5249463,
        813857,
        5628409
      ],
      "startZoomLevel": 10
    },
    "menu": {
      "tree": {
        "name": "translate#common:menu.topics",
        "icon": "bi-layers"
      },
      "tools": {
        "name": "translate#common:menu.tools.name",
        "icon": "bi-tools",
        "children": {
          "login": {
            "name": "translate#common:modules.login.login",
            "icon": "bi-door-open"
          },
          "gfi": {
            "name": "translate#common:menu.tools.getInfos",
            "icon": "bi-info-lg",
            "active": true
          },
          "coordToolkit": {
            "name": "translate#common:menu.tools.coordToolkit",
            "icon": "bi-globe"
          },
          "measure": {
            "name": "translate#common:menu.tools.measure",
            "icon": "bi-rulers"
          },
          "fileImport": {
            "name": "translate#common:menu.tools.fileImport",
            "icon": "bi-box-arrow-in-down"
          },
          "draw": {
            "name": "translate#common:menu.tools.draw",
            "icon": "bi-pencil-fill"
          },
          "saveSelection": {
            "name": "translate#common:menu.tools.saveSelection",
            "icon": "bi-bookmark-check"
          }
        }
      },
      "legend": {
        "name": "common:modules.legend.name",
        "icon": "bi-book",
        "showCollapseAllButton": true
      },
      "info": {
        "name": "Info",
        "icon": "bi-folder",
        "children": {
          "staticlinks": [
            {
              "name": "Bootstrap Icons",
              "icon": "bi-globe",
              "url": "https://icons.getbootstrap.com/#icons"
            },
            {
              "name": "Masterportal DOKU",
              "icon": "bi-globe",
              "url": "https://www.masterportal.org/dokumentation.html"
            }
          ]
        }
      }
    },
    "controls": {
      "zoom": true,
      "attributions": true,
      "mousePosition": true,
      "orientation": true
    }
  },
  "Themenconfig": {
    "Hintergrundkarten": {
      "Layer": [
        {
          "id": "stadtkarte",
          "visibility": true
        },
        {
          "id": "luftbild"
        }
      ]
    },
    "Fachdaten": {
      "Layer": [
        {
          "id": "lsa",
          "visibility": true
        },
        {
          "id": "lsa_signalgeber_fahrverkehr",
          "visibility": true
        },
        {
          "id": "lsa_signalgeber_fussgaenger",
          "visibility": true
        },
        {
          "id": "verkehrsdetektoren",
          "visibility": true
        },
        {
          "id": "lsa_frost_fahrverkehr",
          "visibility": true,
          "styleId": "lsa_frost"
        },
        {
          "id": "lsa_frost_fussgaenger",
          "visibility": true,
          "styleId": "lsa_frost"
        },
        {
          "id": "baustellen_2_weeks",
          "visibility": true
        }
      ]
    }
  }
}
