﻿{
  "Portalconfig": {
    "portalTitle": {
      "title": "Hier ist der Titel",
      "logo": "./resources/img/DigitalerZwilling_Logo_RGB_transparent.png",
      "link": "https://www.muenchen.de/",
      "toolTip": "für das Umsetzungsprojekt"
    },
    "treeType": "custom",
    "searchBar": {
      "tree": {
        "minChars": 3
      },
      "startZoomLevel": 5,
      "placeholder": "Suche nach Themen im Portal!"
    },
    "mapView": {
      "backgroundImage": "./resources/img/backgroundCanvas.jpeg",
      "options": [
        {
          "resolution": 112,
          "scale": 400000,
          "zoomLevel": 0
        },
        {
          "resolution": 56,
          "scale": 200000,
          "zoomLevel": 1
        },
        {
          "resolution": 42,
          "scale": 150000,
          "zoomLevel": 2
        },
        {
          "resolution": 28,
          "scale": 100000,
          "zoomLevel": 3
        },
        {
          "resolution": 21,
          "scale": 75000,
          "zoomLevel": 4
        },
        {
          "resolution": 14,
          "scale": 50000,
          "zoomLevel": 5
        },
        {
          "resolution": 7,
          "scale": 25000,
          "zoomLevel": 6
        },
        {
          "resolution": 4.2,
          "scale": 15000,
          "zoomLevel": 7
        },
        {
          "resolution": 2.8,
          "scale": 10000,
          "zoomLevel": 8
        },
        {
          "resolution": 2.1,
          "scale": 7500,
          "zoomLevel": 9
        },
        {
          "resolution": 1.4,
          "scale": 5000,
          "zoomLevel": 10
        },
        {
          "resolution": 0.7,
          "scale": 2500,
          "zoomLevel": 11
        },
        {
          "resolution": 0.28,
          "scale": 1000,
          "zoomLevel": 12
        },
        {
          "resolution": 0.14,
          "scale": 500,
          "zoomLevel": 13
        }
      ],
      "startCenter": [
        691603,
        5334761
      ],
      "extent": [
        518901,
        5249463,
        813857,
        5628409
      ],
      "startZoomLevel": 2
    },
    "menu": {
      "tree": {
        "name": "translate#common:menu.topics",
        "icon": "bi-layers"
      },
      "tools": {
        "name": "translate#common:menu.tools.name",
        "icon": "bi-tools",
        "children": {
          "gfi": {
            "name": "translate#common:menu.tools.getInfos",
            "icon": "bi-info-lg",
            "active": true,
            "hideMapMarkerOnVectorHighlight": true,
            "highlightVectorRules": {
              "fill": {
                "color": [
                  0,
                  255,
                  255,
                  0.5
                ]
              },
              "image": {
                "scale": 1.5
              },
              "stroke": {
                "width": 5,
                "color": [
                  0,
                  255,
                  255,
                  0.5
                ]
              },
              "text": {
                "scale": 2
              }
            }
          },
          "coordToolkit": {
            "name": "translate#common:menu.tools.coordToolkit",
            "icon": "bi-globe"
          },
          "measure": {
            "name": "translate#common:menu.tools.measure",
            "icon": "bi-rulers"
          },
          "fileImport": {
            "name": "translate#common:menu.tools.fileImport",
            "icon": "bi-box-arrow-in-down"
          },
          "draw": {
            "name": "translate#common:menu.tools.draw",
            "icon": "bi-pencil-fill"
          },
          "saveSelection": {
            "name": "translate#common:menu.tools.saveSelection",
            "icon": "bi-bookmark-check"
          }
        }
      },
      "legend": {
        "name": "common:modules.legend.name",
        "icon": "bi-book",
        "showCollapseAllButton": true
      },
      "info": {
        "name": "Info",
        "icon": "bi-folder",
        "children": {
          "staticlinks": [
            {
              "name": "Bootstrap Icons",
              "icon": "bi-globe",
              "url": "https://icons.getbootstrap.com/#icons"
            },
            {
              "name": "Masterportal DOKU",
              "icon": "bi-globe",
              "url": "https://www.masterportal.org/dokumentation.html"
            }
          ]
        }
      }
    },
    "controls": {
      "zoom": true,
      "attributions": true,
      "mousePosition": true,
      "orientation": true
    }
  },
  "Themenconfig": {
    "Hintergrundkarten": {
      "Layer": [
        {
          "id": "g_stadtkarte_gesamt",
          "visibility": true
        },
        {
          "id": "g_luftbild"
        }
      ]
    },
    "Fachdaten": {
      "Ordner": [
        {
          "Layer": [
            {
              "id": "vablock_bezirksteil_opendata"
            },
            {
              "id": "maerkte_opendata",
              "visibility": true,
              "name": "Michis tolle Märkte",
              "gfiAttributes": {
                "inhalt": "Mein Inhalt"
              }
            }
          ],
          "Titel": "Verwaltungsgrenzen",
          "Ordner": [
            {
              "Titel": "Unterordner",
              "Layer": [
                {
                  "id": "vablock_stadtbezirk_opendata"
                }
              ]
            }
          ]
        }
      ]
    },
      "Fachdaten_3D": {
        "Layer": []
      }
    }
  }