{
  "globalAlerts": [
    "welcome"
  ],
  "restrictedAlerts": {},
  "alerts": {
    "welcome": {
      "category": "Willkommen beim Portal DefaultTree.",
      "content": "Fokus dieses Portals:<br><ul><li>Default Themenbaum (automatischer Aufbau anhand der Metadaten)</li></ul>"
    }
  }
}
