[
  {
    "id": "elastic_muc",
    "name": "ElasticSearch Suche",
		"url": "https://geoportal.muenchen.de/api/v1/search",
		"typ": "ElasticSearch"
  },
  {
    "id": "komoot",
    "name": "Komoot Suche",
		"url": "https://photon.komoot.io/api/",
		"typ": "Komoot"
  },
  {
    "id": "master",
    "name": "Master Suche",
		"url": "https://address-service-test.muenchen.de/v2/adresse/search",
    "_url": "http://master-address-service.apps.capk.muenchen.de/v2/adresse/search",
		"typ": "Master"
  }
]
