[
  {
    "styleId": "customMapMarkerPoint",
    "rules": [
      {
        "style": {
          "type": "icon",
          "imageName": "poi_red.png",
          "imageScale": 0.5,
          "imageOffsetY": 1
        }
      }
    ]
  },
  {
    "styleId": "lsa_frost",
    "rules": [
      {
        "conditions": {
          "properties": {
            "@Datastreams.0.Observations.0.result": 0
          }
        },
        "style": {
          "type": "circle",
          "circleRadius": 10,
          "circleStrokeColor": [0,0,0,1],
          "circleStrokeWidth": 2,
          "circleFillColor": [155,155,155,1],
          "legendValue": "0 = außer Betrieb"
        }
      },
      {
        "conditions": {
          "properties": {
            "@Datastreams.0.Observations.0.result": 1
          }
        },
        "style": {
          "type": "circle",
          "circleRadius": 10,
          "circleStrokeColor": [0,0,0,1],
          "circleStrokeWidth": 2,
          "circleFillColor": [0,0,0,1],
          "legendValue": "1 = aus (meistens Nachts)"
        }
      },
      {
        "conditions": {
          "properties": {
            "@Datastreams.0.Observations.0.result": 2
          }
        },
        "style": {
          "type": "circle",
          "circleRadius": 10,
          "circleStrokeColor": [0,0,0,1],
          "circleStrokeWidth": 2,
          "circleFillColor": [0,255,0,1],
          "legendValue": "2 = grün"
        }
      },
      {
        "conditions": {
          "properties": {
            "@Datastreams.0.Observations.0.result": 3
          }
        },
        "style": {
          "type": "circle",
          "circleRadius": 10,
          "circleStrokeColor": [0,0,0,1],
          "circleStrokeWidth": 2,
          "circleFillColor": [255,0,0,1],
          "legendValue": "3 = rot"
        }
      }
    ]
  }
]
