[
  {
    "styleId": "customMapMarkerPoint",
    "rules": [
      {
        "style": {
          "type": "icon",
          "imageName": "poi_red.png",
          "imageScale": 0.5,
          "imageOffsetY": 1
        }
      }
    ]
  },
  {
    "styleId": "movingFeature",
    "rules": [
      {
        "style": {
          "type": "icon",
          "imageName": "poi_blue.png",
          "imageScale": 0.5,
          "imageOffsetY": 1,
          "labelField": "@Datastreams.0.Observations.0.result",
          "textOffsetX": 10,
          "textScale": 1.5,
          "textStrokeColor": [0, 0, 0, 1],
          "textFillColor": [0, 0, 0, 1],
          "textStrokeWidth": 1,
          "textSuffix": "km/h",
          "textAlign": "left"
        }
      }
    ]
  },
  {
    "styleId": "treesense",
    "rules": [
      {
        "conditions": {
          "properties": {
            "@Datastreams.1.Observations.0.result": "healthy"
          }
        },
        "style": {
          "type": "icon",
          "imageName": "treesense_healthy.png",
          "imageScale": 0.5,
          "imageOffsetY": 1
        }
      },
      {
        "conditions": {
          "properties": {
            "@Datastreams.1.Observations.0.result": "drying out"
          }
        },
        "style": {
          "type": "icon",
          "imageName": "treesense_drying_out.png",
          "imageScale": 0.5,
          "imageOffsetY": 1
        }
      },
      {
        "conditions": {
          "properties": {
            "@Datastreams.1.Observations.0.result": "dry"
          }
        },
        "style": {
          "type": "icon",
          "imageName": "treesense_dry.png",
          "imageScale": 0.5,
          "imageOffsetY": 1
        }
      },
      {
        "conditions": {
          "properties": {
            "@Datastreams.1.Observations.0.result": "frost"
          }
        },
        "style": {
          "type": "icon",
          "imageName": "treesense_frost.png",
          "imageScale": 0.5,
          "imageOffsetY": 1
        }
      }
    ]
  },
  {
    "styleId": "lfu",
    "rules": [
      {
        "style": {
          "type": "icon",
          "imageName": "poi_green.png",
          "imageScale": 0.5,
          "imageOffsetY": 1
        }
      }
    ]
  },
  {
    "styleId": "dwd",
    "rules": [
      {
        "style": {
          "type": "icon",
          "imageName": "dwd_logo.png",
          "imageScale": 0.3,
          "imageOffsetY": 1
        }
      }
    ]
  },
  {
    "styleId": "swm_ladestationen",
    "rules": [
      {
        "style": {
          "type": "nominal",
          "scalingShape": "CIRCLESEGMENTS",
          "scalingAttribute": "dataStreamValue",
          "scalingValues": {
            "Operative": [0, 255, 0, 0.5],
            "Inoperative": [255, 0, 0, 0.5],
            "Unknown": [100, 100, 100, 0.5]
          },
          "imageName": "charging.png",
          "imageScale": 0.5,
          "circleSegmentsRadius": 14
        }
      }
    ]
  },
  {
    "styleId": "immo_standorte",
    "rules": [
      {
        "style": {
          "type": "circle",
          "circleFillColor": [255,0,0,1],
          "circleStrokeColor": [0,0,0,1],
          "circleStrokeWidth": 2,
          "circleRadius": 10
        }
      }
    ]
  },
  {
    "styleId": "wc_finder",
    "rules": [
      {
        "style": {
          "type": "circle",
          "circleFillColor": [0,0,255,1],
          "circleStrokeColor": [0,0,0,1],
          "circleStrokeWidth": 2,
          "circleRadius": 10
        }
      }
    ]
  }
]
